,train_loss,train_acc,train_time,val_loss,val_acc,val_time
0,2.2059668983936884,0.30970853007657434,1305.6215510368347,2.112698694884059,0.33840361445783135,196.34679746627808
1,2.006040449033432,0.3656565305988711,1280.0070638656616,2.0581113484968623,0.33509036144578314,194.78342700004578
2,1.902249493753867,0.39888225494022117,1275.4912083148956,1.9446175583873886,0.3795180722891566,196.80548739433289
3,1.8307015746652577,0.421028880866426,1277.4311435222626,1.896807032608124,0.4,195.87110018730164
4,1.7756233485023325,0.4394930806257521,1270.0376660823822,1.8934403474072377,0.39759036144578314,194.9215805530548
5,1.7281253441146134,0.44886836990552686,1291.18674659729,1.8779354750391948,0.41445783132530123,213.2109751701355
6,1.6932775399027893,0.4601181384745344,1359.4487674236298,1.883804224198123,0.40481927710843374,200.5220181941986
7,1.6673019078664402,0.46861114968892037,1545.0103688240051,1.89272600570357,0.40436746987951805,208.93538904190063
8,1.6095318087028108,0.48715923818009854,1420.5860388278961,1.9462833404541016,0.3853915662650602,202.09054970741272
9,1.5541475814745889,0.4990714384975847,1408.7284903526306,1.982780366633312,0.4,200.84714794158936
