,train_loss,train_acc,train_time,val_loss,val_acc,val_time
0,2.0369924688453995,0.3541927011291329,1386.2649393081665,1.891933566978179,0.407078313253012,196.05762386322021
1,1.9868628151006504,0.36755704435057013,1317.2400822639465,1.9172479718564504,0.39457831325301207,197.495050907135
2,1.966977728259549,0.37580128205955815,1328.7234439849854,1.860128177792193,0.4090361445783133,194.1592812538147
3,1.9425168595446003,0.3819222669739155,1313.4905788898468,1.8792393451713654,0.4015060240963855,196.1030707359314
4,1.9241658625619937,0.3830677821030829,1319.0786890983582,1.844239458405828,0.4162650602409639,197.09903526306152
